hw4.utf8.md
…
##  tibble  2.1.3      purrr   0.3.3
##  tidyr   1.0.2      dplyr   0.8.4
##  readr   1.3.1      stringr 1.4.0
##  tibble  2.1.3      forcats 0.4.0

##  Conflicts  tidyverse_conflicts() 
##  dplyr::filter() masks stats::filter()
##  dplyr::lag()    masks stats::lag()

weight0 <- ChickWeight %>% 
  group_by(Chick) %>% 
  summarise(sd = sd(weight), average = mean(weight))
weight0

## # A tibble: 50 x 3
##    Chick    sd average
##    <ord> <dbl>   <dbl>
##  1 18     2.83    37  
##  2 16     5.38    49.7
##  3 15    10.4     60.1
##  4 13    16.3     67.8
##  5 9     20.6     81.2
##  6 20    26.5     78.4
##  7 10    28.8     83.1
##  8 8     32.6     92  
##  9 17    32.1     92.5
## 10 19    37.5     86.8
## #  with 40 more rows
…
complete <- ChickWeight %>% group_by(Chick) %>% 
mutate(Total = n()) %>% 
dplyr:: filter(Total == 12) 
complete

## # A tibble: 540 x 5
## # Groups:   Chick [45]
##    weight  Time Chick Diet  Total
##     <dbl> <dbl> <ord> <fct> <int>
##  1     42     0 1     1        12
##  2     51     2 1     1        12
##  3     59     4 1     1        12
##  4     64     6 1     1        12
##  5     76     8 1     1        12
##  6     93    10 1     1        12
##  7    106    12 1     1        12
##  8    125    14 1     1        12
##  9    149    16 1     1        12
## 10    171    18 1     1        12
## #  with 530 more rows
…
24 was on diet 2 and only gained 32 units.

For the chicks with the least and the most weight at time 0, plot their growth trajectories over time. 

complete %>% 
  arrange(weight, Time == 0)

## # A tibble: 540 x 6
## # Groups:   Chick [45]
##    weight  Time Chick Diet  Total weightgain
##     <dbl> <dbl> <ord> <fct> <int>      <dbl>
##  1     39     2 3     1        12         -4
##  2     39     0 27    2        12          0
##  3     39     0 28    2        12          0
##  4     39     0 29    2        12          0
##  5     39     0 33    3        12          0
##  6     39     0 36    3        12          0
##  7     39     0 48    4        12          0
##  8     40     0 2     1        12          0
##  9     40     0 21    2        12          0
## 10     40     0 25    2        12          0
## #  with 530 more rows
…
complete %>% 
  arrange(Time, desc(weight))

## # A tibble: 540 x 6
## # Groups:   Chick [45]
##    weight  Time Chick Diet  Total weightgain
##     <dbl> <dbl> <ord> <fct> <int>      <dbl>
##  1     43     0 3     1        12          0
##  2     43     0 11    1        12          0
##  3     43     0 19    1        12          0
##  4     43     0 23    2        12          0
##  5     42     0 1     1        12          0
##  6     42     0 4     1        12          0
##  7     42     0 9     1        12          0
##  8     42     0 17    1        12          0
##  9     42     0 24    2        12          0
## 10     42     0 26    2        12          0
## #  with 530 more rows
…
